<?xml version="1.0"?>
<!DOCTYPE svg PUBLIC '-//W3C//DTD SVG 1.0//EN'
          'http://www.w3.org/TR/2001/REC-SVG-20010904/DTD/svg10.dtd'>
<svg xmlns:xlink="http://www.w3.org/1999/xlink" style="fill-opacity:1; color-rendering:auto; color-interpolation:auto; text-rendering:auto; stroke:black; stroke-linecap:square; stroke-miterlimit:10; shape-rendering:auto; stroke-opacity:1; fill:black; stroke-dasharray:none; font-weight:normal; stroke-width:1; font-family:'Dialog'; font-style:normal; stroke-linejoin:miter; font-size:12px; stroke-dashoffset:0; image-rendering:auto;" width="560" height="420" xmlns="http://www.w3.org/2000/svg"
><!--Generated by the Batik Graphics2D SVG Generator--><defs id="genericDefs"
  /><g
  ><defs id="defs1"
    ><clipPath clipPathUnits="userSpaceOnUse" id="clipPath1"
      ><path d="M0 0 L560 0 L560 420 L0 420 L0 0 Z"
      /></clipPath
      ><font horiz-adv-x="96.591156" id="font1"
      ><font-face ascent="89.99176" descent="9.999084" units-per-em="100" style="font-style:normal; font-family:Cooper Hewitt Medium; font-weight:normal;"
        /><missing-glyph horiz-adv-x="96.591156" d="M9.2969 0 L9.2969 78 L87.2969 78 L87.2969 0 L9.2969 0 ZM48.2969 34.5 L20.4062 6.5938 L76.2031 6.5938 L48.2969 34.5 ZM20.4062 71.4062 L48.2969 43.5 L76.2031 71.4062 L20.4062 71.4062 ZM43.7969 39 L16.2969 66.5 L16.2969 11.5 L43.7969 39 ZM52.7969 39 L80.2969 11.5 L80.2969 66.5 L52.7969 39 Z"
        /><glyph unicode="1" horiz-adv-x="59.994507" d="M55.2969 0 L6.7031 0 L6.7031 9.2031 L25.9062 9.2031 L25.9062 65.0938 L9.7031 54.0938 L4.5938 61.7031 L29 78.2969 L36.0938 78.2969 L36.0938 9.2031 L55.2969 9.2031 L55.2969 0 Z"
        /><glyph unicode="." horiz-adv-x="23.397858" d="M17.4062 11.4062 L17.4062 0 L6 0 L6 11.4062 L17.4062 11.4062 Z"
        /><glyph unicode="0" horiz-adv-x="59.994507" d="M54.4062 22.2969 Q54.4062 11.5938 48.3047 5.1953 Q42.2031 -1.2031 30 -1.2031 Q17.7969 -1.2031 11.6953 5.1953 Q5.5938 11.5938 5.5938 22.2969 L5.5938 55.7031 Q5.5938 66.4062 11.6953 72.8047 Q17.7969 79.2031 30 79.2031 Q42.2031 79.2031 48.3047 72.8047 Q54.4062 66.4062 54.4062 55.7031 L54.4062 22.2969 ZM44.0938 55.0938 Q44.0938 70.0938 30.2969 70.0938 L29.7031 70.0938 Q15.9062 70.0938 15.9062 55.0938 L15.9062 22.9062 Q15.9062 7.9062 29.7031 7.9062 L30.2969 7.9062 Q44.0938 7.9062 44.0938 22.9062 L44.0938 55.0938 Z"
        /><glyph unicode="-" horiz-adv-x="33.696915" d="M4 30.5 L4 39.5 L29.7031 39.5 L29.7031 30.5 L4 30.5 Z"
        /><glyph unicode="5" horiz-adv-x="59.994507" d="M4.7031 25 L14.9062 25 Q14.9062 7.9062 29.5 7.9062 L30.5 7.9062 Q36.7031 7.9062 40.8516 11.8516 Q45 15.7969 45 23.5938 L45 25.0938 Q45 33 40.7969 36.8984 Q36.5938 40.7969 30.0938 40.7969 L29.2969 40.7969 Q24.4062 40.7969 20.1016 38.4453 Q15.7969 36.0938 13.9062 31.7031 L5.2969 34.5938 L7.0938 78 L54.2969 78 L54.2969 68.7969 L15.9062 68.7969 L14.7969 45.2969 Q21.4062 49.7969 30.4062 49.7969 Q41.7031 49.7969 48.5 43.25 Q55.2969 36.7031 55.2969 25.0938 L55.2969 23.5938 Q55.2969 11.9062 48.4453 5.3516 Q41.5938 -1.2031 30 -1.2031 Q17.4062 -1.2031 11.0547 5.2969 Q4.7031 11.7969 4.7031 23.7969 L4.7031 25 Z"
        /><glyph unicode=")" horiz-adv-x="33.396942" d="M28.7969 37 L28.7969 35 Q28.7969 19.2969 24.9453 9 Q21.0938 -1.2969 13.5938 -12 L2.9062 -12 Q10.5938 -0.7969 14.5938 9.8516 Q18.5938 20.5 18.5938 35 L18.5938 37 Q18.5938 51.5 14.5938 62.1484 Q10.5938 72.7969 2.9062 84 L13.5938 84 Q21.0938 73.2969 24.9453 63 Q28.7969 52.7031 28.7969 37 Z"
        /><glyph unicode="a" horiz-adv-x="52.495193" d="M38.5938 0 L37.5938 6.7969 Q31.2031 -1.2031 19.5938 -1.2031 Q12 -1.2031 8 2.9453 Q4 7.0938 4 13.7969 L4 14.7969 Q4 22.7031 8.7969 26.3516 Q13.5938 30 21.9062 31.2031 L36.5938 33.5 L36.5938 34.2969 Q36.5938 40.5 34.25 43.3516 Q31.9062 46.2031 26 46.2031 Q15.5 46.2031 15.5 35.5 L6 35.5 L6 36.4062 Q6 43.9062 10.6016 49.0547 Q15.2031 54.2031 26.2969 54.2031 Q37.2969 54.2031 41.9453 49.0547 Q46.5938 43.9062 46.5938 34.2969 L46.5938 15 L47.2969 0 L38.5938 0 ZM22.7969 7.2031 Q32 7.2031 36.5938 14.0938 L36.5938 27 L23.4062 24.7969 Q13.9062 23.2969 13.9062 15.7969 L13.9062 15 Q13.9062 11.7031 16.1562 9.4531 Q18.4062 7.2031 22.7969 7.2031 Z"
        /><glyph unicode="b" horiz-adv-x="54.994965" d="M16.0938 80 L16.0938 47.4062 Q21.2031 54.2031 30.7031 54.2031 Q41 54.2031 45.8984 47.0547 Q50.7969 39.9062 50.7969 27.9062 L50.7969 25.0938 Q50.7969 13.0938 45.8984 5.9453 Q41 -1.2031 30.7031 -1.2031 Q20 -1.2031 15.0938 6.9062 L14.0938 0 L5.4062 0 L6.0938 15 L6.0938 80 L16.0938 80 ZM16.0938 38.2969 L16.0938 14.7031 Q20.7969 7.5938 28.0938 7.5938 Q40.7031 7.5938 40.7031 25.0938 L40.7031 27.9062 Q40.7031 45.4062 28.0938 45.4062 Q20.7969 45.4062 16.0938 38.2969 Z"
        /><glyph unicode="(" horiz-adv-x="33.396942" d="M4.5938 35 L4.5938 37 Q4.5938 52.7031 8.4453 63 Q12.2969 73.2969 19.7969 84 L30.5 84 Q22.7969 72.7969 18.7969 62.1484 Q14.7969 51.5 14.7969 37 L14.7969 35 Q14.7969 20.5 18.7969 9.8516 Q22.7969 -0.7969 30.5 -12 L19.7969 -12 Q12.2969 -1.2969 8.4453 9 Q4.5938 19.2969 4.5938 35 Z"
        /><glyph unicode="p" horiz-adv-x="54.994965" d="M30.7031 -1.2031 Q21.2031 -1.2031 16.0938 5.5938 L16.0938 -20 L6.0938 -20 L6.0938 38 L5.4062 53 L14.0938 53 L15.0938 46 Q20.0938 54.2031 30.7031 54.2031 Q41 54.2031 45.8984 47.0547 Q50.7969 39.9062 50.7969 27.9062 L50.7969 25.0938 Q50.7969 13.0938 45.8984 5.9453 Q41 -1.2031 30.7031 -1.2031 ZM16.0938 38.2969 L16.0938 14.7031 Q20.7969 7.5938 28.0938 7.5938 Q40.7031 7.5938 40.7031 25.0938 L40.7031 27.9062 Q40.7031 45.4062 28.0938 45.4062 Q20.7969 45.4062 16.0938 38.2969 Z"
        /><glyph unicode="o" horiz-adv-x="54.794983" d="M27.3984 -1.2031 Q15.7969 -1.2031 10 6.0469 Q4.2031 13.2969 4.2031 25.0938 L4.2031 27.9062 Q4.2031 39.7031 10 46.9531 Q15.7969 54.2031 27.3984 54.2031 Q39 54.2031 44.7969 46.9531 Q50.5938 39.7031 50.5938 27.9062 L50.5938 25.0938 Q50.5938 13.2969 44.7969 6.0469 Q39 -1.2031 27.3984 -1.2031 ZM27.3984 7.5938 Q34 7.5938 37.25 12.25 Q40.5 16.9062 40.5 25.0938 L40.5 27.9062 Q40.5 36.0938 37.25 40.75 Q34 45.4062 27.3984 45.4062 Q20.7969 45.4062 17.5469 40.75 Q14.2969 36.0938 14.2969 27.9062 L14.2969 25.0938 Q14.2969 16.9062 17.5469 12.25 Q20.7969 7.5938 27.3984 7.5938 Z"
        /><glyph unicode="d" horiz-adv-x="55.394928" d="M24.7031 54.2031 Q34 54.2031 39.2031 47.5 L39.2031 80 L49.2969 80 L49.2969 15 L50 0 L41.2969 0 L40.2031 6.9062 Q35.0938 -1.2031 24.7031 -1.2031 Q14.4062 -1.2031 9.5 5.9453 Q4.5938 13.0938 4.5938 25.0938 L4.5938 27.9062 Q4.5938 39.9062 9.5 47.0547 Q14.4062 54.2031 24.7031 54.2031 ZM39.2031 14.7031 L39.2031 38.2969 Q34.7969 45.4062 27.2969 45.4062 Q14.7031 45.4062 14.7031 27.9062 L14.7031 25.0938 Q14.7031 7.5938 27.2969 7.5938 Q34.7969 7.5938 39.2031 14.7031 Z"
        /><glyph unicode=" " horiz-adv-x="19.998169" d=""
        /><glyph unicode="u" horiz-adv-x="54.49501" d="M5.5938 53 L15.5938 53 L15.5938 17.9062 Q15.5938 12.9062 18.1484 10.25 Q20.7031 7.5938 25.5 7.5938 Q33.7031 7.5938 38.4062 14.7031 L38.4062 53 L48.4062 53 L48.4062 15 L49.0938 0 L40.4062 0 L39.2969 7.2969 Q33.5938 -1.2031 21.7969 -1.2031 Q13.9062 -1.2031 9.75 3.6953 Q5.5938 8.5938 5.5938 16.2969 L5.5938 53 Z"
        /><glyph unicode="s" horiz-adv-x="52.395203" d="M26.2031 6.7969 Q31.5938 6.7969 34.4453 9 Q37.2969 11.2031 37.2969 15 Q37.2969 19.2031 34.6016 20.9531 Q31.9062 22.7031 25 23.2031 Q14.4062 24.2031 10 27.6016 Q5.5938 31 5.5938 37.5938 L5.5938 38.2969 Q5.5938 45.9062 11.1484 50.0547 Q16.7031 54.2031 26.2031 54.2031 Q46.9062 54.2031 46.9062 36.2031 L46.9062 35.7969 L37 35.7969 Q37 40.9062 34.5 43.5547 Q32 46.2031 26.2031 46.2031 Q21.2031 46.2031 18.3984 44.2031 Q15.5938 42.2031 15.5938 38.5 Q15.5938 34.7031 18.0469 32.8984 Q20.5 31.0938 27.4062 30.5 Q37.7969 29.7031 42.6484 26.4531 Q47.5 23.2031 47.5 15.7969 L47.5 15.2031 Q47.5 7.7031 41.9531 3.25 Q36.4062 -1.2031 26.2031 -1.2031 Q15.5 -1.2031 10.25 3.75 Q5 8.7031 5 16 L5 16.4062 L14.9062 16.4062 Q14.9062 6.7969 26.2031 6.7969 Z"
        /><glyph unicode="e" horiz-adv-x="54.794983" d="M50.5938 22.7031 L14.2969 22.7031 Q14.9062 6.7969 28.2031 6.7969 Q34.2969 6.7969 37.6484 9.8984 Q41 13 41 17 L50.5938 17 L50.5938 16.5938 Q50.5938 9.4062 44.6953 4.1016 Q38.7969 -1.2031 28.0938 -1.2031 Q16.2031 -1.2031 10.2031 6.1484 Q4.2031 13.5 4.2031 25.2969 L4.2031 27.7031 Q4.2031 39.5 10.1484 46.8516 Q16.0938 54.2031 27.5938 54.2031 Q39 54.2031 44.7969 46.8516 Q50.5938 39.5 50.5938 27.7031 L50.5938 22.7031 ZM27.4062 46.2031 Q14.7969 46.2031 14.2969 30.2969 L40.5 30.2969 Q39.9062 46.2031 27.4062 46.2031 Z"
        /><glyph unicode="r" horiz-adv-x="34.996796" d="M29.7031 54.2031 Q30 54.2031 30.5938 54.2031 L31.2031 54.0938 L31.2031 44.5 L29.4062 44.5 Q20.7031 44.5 16.2031 37.7031 L16.2031 0 L6.2031 0 L6.2031 38 L5.5 53 L14.0938 53 L15.0938 46.2031 Q20.4062 54.2031 29.7031 54.2031 Z"
        /><glyph unicode="P" horiz-adv-x="58.594635" d="M17.0938 30.4062 L17.0938 0 L6.7031 0 L6.7031 78 L29.7969 78 Q54.7969 78 54.7969 55.2031 L54.7969 53.2031 Q54.7969 30.4062 29.7969 30.4062 L17.0938 30.4062 ZM17.0938 39.5 L30.0938 39.5 Q32.7031 39.5 34.8984 40.0469 Q37.0938 40.5938 39.3438 42 Q41.5938 43.4062 42.8984 46.3516 Q44.2031 49.2969 44.2031 53.5 L44.2031 54.7969 Q44.2031 59 42.8984 61.9531 Q41.5938 64.9062 39.3438 66.3047 Q37.0938 67.7031 34.8984 68.25 Q32.7031 68.7969 30.0938 68.7969 L17.0938 68.7969 L17.0938 39.5 Z"
        /><glyph unicode="/" horiz-adv-x="35.996704" d="M34.5 84 L11.5 -12 L1.5 -12 L24.5 84 L34.5 84 Z"
        /><glyph unicode="g" horiz-adv-x="54.994965" d="M38.9062 0.2969 L38.9062 9 Q33.9062 2.4062 24.2969 2.4062 Q14.0938 2.4062 9.1484 9.1562 Q4.2031 15.9062 4.2031 27.0938 L4.2031 29.5 Q4.2031 40.5 9.1484 47.3516 Q14.0938 54.2031 24.2969 54.2031 Q34.9062 54.2031 39.9062 46.2031 L40.9062 53 L49.5938 53 L48.9062 38 L48.9062 0 Q48.9062 -10 43.5 -15.6016 Q38.0938 -21.2031 26.7969 -21.2031 Q15.4062 -21.2031 10.3047 -15.8516 Q5.2031 -10.5 5.2031 -1.5938 L5.2031 0 L14.7969 0 Q14.7969 -6.5 17.5469 -9.6484 Q20.2969 -12.7969 26.6953 -12.7969 Q33.0938 -12.7969 36 -9.6016 Q38.9062 -6.4062 38.9062 0.2969 ZM38.9062 38.2969 Q34.2031 45.4062 26.9062 45.4062 Q20.7969 45.4062 17.5469 41.1016 Q14.2969 36.7969 14.2969 29.5 L14.2969 27.0938 Q14.2969 19.5 17.5 15.3516 Q20.7031 11.2031 26.9062 11.2031 Q34.4062 11.2031 38.9062 18.2969 L38.9062 38.2969 Z"
        /><glyph unicode="k" horiz-adv-x="52.19522" d="M6 0 L6 80 L16 80 L16 28.2969 L37.5938 53 L49.7969 53 L31.7969 33 L49.7969 0 L38.2031 0 L24.9062 25.2969 L16 15.2969 L16 0 L6 0 Z"
        /><glyph unicode="t" horiz-adv-x="41.096237" d="M21 53 L36.7969 53 L36.7969 44.0938 L21 44.0938 L21 17.0938 Q21 11.5938 23.25 9.5938 Q25.5 7.5938 30.2969 7.5938 Q33.7031 7.5938 35.7969 8.4062 L35.7969 0 Q33.4062 -1.2031 28 -1.2031 Q11 -1.2031 11 16 L11 44.0938 L2.7031 44.0938 L2.7031 53 L11 53 L11 68 L21 68 L21 53 Z"
        /><glyph unicode="w" horiz-adv-x="73.29329" d="M36.7031 42.2031 L26.2031 0 L13.2969 0 L2.7031 53 L12.5938 53 L20 10.7031 L30.5938 53 L42.7031 53 L53.2969 10.7031 L60.7969 53 L70.7031 53 L60 0 L47.2031 0 L36.7031 42.2031 Z"
        /><glyph unicode="l" horiz-adv-x="23.397858" d="M6.7031 0 L6.7031 80 L16.7031 80 L16.7031 0 L6.7031 0 Z"
        /><glyph unicode="f" horiz-adv-x="39.09642" d="M21 62.9062 L21 53 L34.7969 53 L34.7969 44.0938 L21 44.0938 L21 0 L11 0 L11 44.0938 L2.7031 44.0938 L2.7031 53 L11 53 L11 64 Q11 81.2031 28 81.2031 Q33.4062 81.2031 35.7969 80 L35.7969 71.5938 Q33.7031 72.4062 30.2969 72.4062 Q25.5 72.4062 23.25 70.4062 Q21 68.4062 21 62.9062 Z"
        /><glyph unicode="M" horiz-adv-x="82.69243" d="M66 59.9062 L46.4062 0 L36.2969 0 L16.7031 59.9062 L17.0938 43.2031 L17.0938 0 L6.7031 0 L6.7031 78 L21.7969 78 L41.2969 18 L60.9062 78 L76 78 L76 0 L65.5938 0 L65.5938 43.2031 L66 59.9062 Z"
      /></font
    ></defs
    ><g style="fill:white; stroke:white;"
    ><rect x="0" y="0" width="560" style="clip-path:url(#clipPath1); stroke:none;" height="420"
    /></g
    ><g style="fill:white; text-rendering:optimizeSpeed; color-rendering:optimizeSpeed; image-rendering:optimizeSpeed; shape-rendering:crispEdges; stroke:white; color-interpolation:sRGB;"
    ><rect x="0" width="560" height="420" y="0" style="stroke:none;"
      /><path style="stroke:none;" d="M73 358 L507 358 L507 31 L73 31 Z"
    /></g
    ><g style="stroke-linecap:butt; fill-opacity:0.149; fill:rgb(38,38,38); text-rendering:geometricPrecision; image-rendering:optimizeQuality; color-rendering:optimizeQuality; stroke-linejoin:round; stroke:rgb(38,38,38); color-interpolation:linearRGB; stroke-width:0.6667; stroke-opacity:0.149;"
    ><line y2="31" style="fill:none;" x1="145.1659" x2="145.1659" y1="358"
      /><line y2="31" style="fill:none;" x1="217.8341" x2="217.8341" y1="358"
      /><line y2="31" style="fill:none;" x1="290.5023" x2="290.5023" y1="358"
      /><line y2="31" style="fill:none;" x1="363.1705" x2="363.1705" y1="358"
      /><line y2="31" style="fill:none;" x1="435.8387" x2="435.8387" y1="358"
      /><line y2="196.5185" style="fill:none;" x1="507" x2="73" y1="196.5185"
      /><line y2="31.5046" style="fill:none;" x1="507" x2="73" y1="31.5046"
      /><line x1="73" x2="507" y1="358" style="stroke-linecap:square; fill-opacity:1; fill:none; stroke-opacity:1;" y2="358"
      /><line x1="73" x2="507" y1="31" style="stroke-linecap:square; fill-opacity:1; fill:none; stroke-opacity:1;" y2="31"
      /><line x1="145.1659" x2="145.1659" y1="358" style="stroke-linecap:square; fill-opacity:1; fill:none; stroke-opacity:1;" y2="353.66"
      /><line x1="217.8341" x2="217.8341" y1="358" style="stroke-linecap:square; fill-opacity:1; fill:none; stroke-opacity:1;" y2="353.66"
      /><line x1="290.5023" x2="290.5023" y1="358" style="stroke-linecap:square; fill-opacity:1; fill:none; stroke-opacity:1;" y2="353.66"
      /><line x1="363.1705" x2="363.1705" y1="358" style="stroke-linecap:square; fill-opacity:1; fill:none; stroke-opacity:1;" y2="353.66"
      /><line x1="435.8387" x2="435.8387" y1="358" style="stroke-linecap:square; fill-opacity:1; fill:none; stroke-opacity:1;" y2="353.66"
      /><line x1="145.1659" x2="145.1659" y1="31" style="stroke-linecap:square; fill-opacity:1; fill:none; stroke-opacity:1;" y2="35.34"
      /><line x1="217.8341" x2="217.8341" y1="31" style="stroke-linecap:square; fill-opacity:1; fill:none; stroke-opacity:1;" y2="35.34"
      /><line x1="290.5023" x2="290.5023" y1="31" style="stroke-linecap:square; fill-opacity:1; fill:none; stroke-opacity:1;" y2="35.34"
      /><line x1="363.1705" x2="363.1705" y1="31" style="stroke-linecap:square; fill-opacity:1; fill:none; stroke-opacity:1;" y2="35.34"
      /><line x1="435.8387" x2="435.8387" y1="31" style="stroke-linecap:square; fill-opacity:1; fill:none; stroke-opacity:1;" y2="35.34"
    /></g
    ><g transform="translate(145.1659,364.4)" style="font-size:18.6667px; fill:rgb(38,38,38); text-rendering:geometricPrecision; image-rendering:optimizeQuality; color-rendering:optimizeQuality; font-family:'Cooper Hewitt Medium'; stroke:rgb(38,38,38); color-interpolation:linearRGB;"
    ><text x="-17" xml:space="preserve" y="17" style="stroke:none;"
      >-0.1</text
    ></g
    ><g transform="translate(217.8341,364.4)" style="font-size:18.6667px; fill:rgb(38,38,38); text-rendering:geometricPrecision; image-rendering:optimizeQuality; color-rendering:optimizeQuality; font-family:'Cooper Hewitt Medium'; stroke:rgb(38,38,38); color-interpolation:linearRGB;"
    ><text x="-22.5" xml:space="preserve" y="17" style="stroke:none;"
      >-0.05</text
    ></g
    ><g transform="translate(290.5023,364.4)" style="font-size:18.6667px; fill:rgb(38,38,38); text-rendering:geometricPrecision; image-rendering:optimizeQuality; color-rendering:optimizeQuality; font-family:'Cooper Hewitt Medium'; stroke:rgb(38,38,38); color-interpolation:linearRGB;"
    ><text x="-6" xml:space="preserve" y="17" style="stroke:none;"
      >0</text
    ></g
    ><g transform="translate(363.1705,364.4)" style="font-size:18.6667px; fill:rgb(38,38,38); text-rendering:geometricPrecision; image-rendering:optimizeQuality; color-rendering:optimizeQuality; font-family:'Cooper Hewitt Medium'; stroke:rgb(38,38,38); color-interpolation:linearRGB;"
    ><text x="-19" xml:space="preserve" y="17" style="stroke:none;"
      >0.05</text
    ></g
    ><g transform="translate(435.8387,364.4)" style="font-size:18.6667px; fill:rgb(38,38,38); text-rendering:geometricPrecision; image-rendering:optimizeQuality; color-rendering:optimizeQuality; font-family:'Cooper Hewitt Medium'; stroke:rgb(38,38,38); color-interpolation:linearRGB;"
    ><text x="-13.5" xml:space="preserve" y="17" style="stroke:none;"
      >0.1</text
    ></g
    ><g transform="translate(290.0002,390.7333)" style="font-size:20.5333px; fill:rgb(38,38,38); text-rendering:geometricPrecision; image-rendering:optimizeQuality; color-rendering:optimizeQuality; font-family:'Cooper Hewitt Medium'; stroke:rgb(38,38,38); color-interpolation:linearRGB;"
    ><text x="-87" xml:space="preserve" y="19" style="stroke:none;"
      >Pressure drop (bar)</text
    ></g
    ><g style="fill:rgb(38,38,38); text-rendering:geometricPrecision; image-rendering:optimizeQuality; color-rendering:optimizeQuality; stroke-linejoin:round; stroke:rgb(38,38,38); color-interpolation:linearRGB; stroke-width:0.6667;"
    ><line y2="31" style="fill:none;" x1="73" x2="73" y1="358"
      /><line y2="31" style="fill:none;" x1="507" x2="507" y1="358"
      /><line y2="196.5185" style="fill:none;" x1="73" x2="77.34" y1="196.5185"
      /><line y2="31.5046" style="fill:none;" x1="73" x2="77.34" y1="31.5046"
      /><line y2="196.5185" style="fill:none;" x1="507" x2="502.66" y1="196.5185"
      /><line y2="31.5046" style="fill:none;" x1="507" x2="502.66" y1="31.5046"
    /></g
    ><g transform="translate(66.6,196.5185)" style="font-size:18.6667px; fill:rgb(38,38,38); text-rendering:geometricPrecision; image-rendering:optimizeQuality; color-rendering:optimizeQuality; font-family:'Cooper Hewitt Medium'; stroke:rgb(38,38,38); color-interpolation:linearRGB;"
    ><text x="-12" xml:space="preserve" y="4.5" style="stroke:none;"
      >0</text
    ></g
    ><g transform="translate(66.6,31.5046)" style="font-size:18.6667px; fill:rgb(38,38,38); text-rendering:geometricPrecision; image-rendering:optimizeQuality; color-rendering:optimizeQuality; font-family:'Cooper Hewitt Medium'; stroke:rgb(38,38,38); color-interpolation:linearRGB;"
    ><text x="-27" xml:space="preserve" y="4.5" style="stroke:none;"
      >0.1</text
    ></g
    ><g transform="translate(35.6,194.4998) rotate(-90)" style="font-size:20.5333px; fill:rgb(38,38,38); text-rendering:geometricPrecision; image-rendering:optimizeQuality; color-rendering:optimizeQuality; font-family:'Cooper Hewitt Medium'; stroke:rgb(38,38,38); color-interpolation:linearRGB;"
    ><text x="-96.5" xml:space="preserve" y="-10" style="stroke:none;"
      >Mass flow rate (kg/s)</text
    ></g
    ><g style="stroke-linecap:butt; fill:red; text-rendering:geometricPrecision; image-rendering:optimizeQuality; color-rendering:optimizeQuality; stroke-linejoin:round; stroke:red; color-interpolation:linearRGB; stroke-width:2;"
    ><path d="M276.5775 358.039 L276.6953 357.3542 L276.8407 356.5054 L276.986 355.6522 L277.1314 354.7943 L277.2767 353.9317 L277.422 353.0645 L277.5674 352.1923 L277.7127 351.3153 L277.858 350.4332 L278.0034 349.5461 L278.1487 348.6538 L278.2941 347.7563 L278.4394 346.8533 L278.5847 345.9449 L278.7301 345.031 L278.8754 344.1114 L279.0208 343.1861 L279.1661 342.2549 L279.3114 341.3176 L279.4568 340.3743 L279.6021 339.4247 L279.7474 338.4688 L279.8928 337.5064 L280.0381 336.5374 L280.1834 335.5617 L280.3288 334.579 L280.4741 333.5894 L280.6194 332.5924 L280.7648 331.5882 L280.9101 330.5764 L281.0555 329.557 L281.2008 328.5296 L281.3461 327.4942 L281.4915 326.4506 L281.6368 325.3985 L281.7821 324.3377 L281.9275 323.2681 L282.0728 322.1894 L282.2181 321.1013 L282.3635 320.0036 L282.5088 318.8961 L282.6541 317.7785 L282.7995 316.6505 L282.9448 315.5117 L283.0901 314.362 L283.2355 313.201 L283.3808 312.0282 L283.5262 310.8435 L283.6715 309.6463 L283.8168 308.4364 L283.9622 307.2132 L284.1075 305.9763 L284.2528 304.7254 L284.3982 303.4597 L284.5435 302.179 L284.6888 300.8824 L284.8342 299.5697 L284.9795 298.2399 L285.1249 296.8925 L285.2702 295.5269 L285.4155 294.1421 L285.5609 292.7373 L285.7062 291.3118 L285.8516 289.8645 L285.9969 288.3944 L286.1422 286.9004 L286.2876 285.3812 L286.4329 283.8357 L286.5782 282.2622 L286.7236 280.6594 L286.8689 279.0255 L287.0143 277.3585 L287.1596 275.6564 L287.3049 273.9169 L287.4503 272.1374 L287.5956 270.315 L287.7409 268.4464 L287.8863 266.528 L288.0316 264.5555 L288.1769 262.5241 L288.3223 260.4281 L288.4676 258.261 L288.6129 256.0151 L288.7583 253.681 L288.9036 251.2474 L289.049 248.7005 L289.1943 246.0227 L289.3396 243.1915 L289.485 240.1771 L289.6303 236.9385 L289.7756 233.4167 L289.921 229.5213 L290.0663 225.0998 L290.2116 219.855 L290.357 213.0199 L290.5023 196.5185 L290.6476 180.0171 L290.793 173.182 L290.9383 167.9373 L291.0836 163.5157 L291.229 159.6203 L291.3743 156.0985 L291.5197 152.86 L291.665 149.8456 L291.8103 147.0144 L291.9557 144.3365 L292.101 141.7896 L292.2463 139.356 L292.3917 137.0219 L292.537 134.776 L292.6824 132.6089 L292.8277 130.513 L292.973 128.4816 L293.1184 126.5091 L293.2637 124.5906 L293.4091 122.7221 L293.5544 120.8997 L293.6997 119.1201 L293.8451 117.3806 L293.9904 115.6786 L294.1357 114.0116 L294.2811 112.3776 L294.4264 110.7748 L294.5717 109.2014 L294.7171 107.6558 L294.8624 106.1367 L295.0078 104.6427 L295.1531 103.1726 L295.2984 101.7253 L295.4438 100.2997 L295.5891 98.895 L295.7344 97.5102 L295.8798 96.1445 L296.0251 94.7971 L296.1704 93.4674 L296.3158 92.1546 L296.4611 90.8581 L296.6064 89.5773 L296.7518 88.3117 L296.8971 87.0607 L297.0424 85.8238 L297.1878 84.6007 L297.3331 83.3907 L297.4785 82.1935 L297.6238 81.0088 L297.7691 79.8361 L297.9145 78.675 L298.0598 77.5253 L298.2051 76.3866 L298.3505 75.2586 L298.4958 74.1409 L298.6411 73.0334 L298.7865 71.9358 L298.9318 70.8477 L299.0772 69.769 L299.2225 68.6993 L299.3678 67.6385 L299.5132 66.5865 L299.6585 65.5428 L299.8038 64.5074 L299.9492 63.4801 L300.0945 62.4606 L300.2399 61.4488 L300.3852 60.4446 L300.5305 59.4477 L300.6759 58.458 L300.8212 57.4753 L300.9665 56.4996 L301.1119 55.5306 L301.2572 54.5682 L301.4026 53.6123 L301.5479 52.6628 L301.6932 51.7194 L301.8386 50.7822 L301.9839 49.851 L302.1292 48.9256 L302.2746 48.006 L302.4199 47.0921 L302.5652 46.1837 L302.7106 45.2808 L302.8559 44.3832 L303.0013 43.4909 L303.1466 42.6038 L303.2919 41.7218 L303.4373 40.8447 L303.5826 39.9726 L303.7279 39.1053 L303.8733 38.2428 L304.0186 37.3849 L304.1639 36.5316 L304.3093 35.6829 L304.4546 34.8386 L304.5999 33.9987 L304.7453 33.1631 L304.8906 32.3318 L305.0359 31.5046 L305.132 30.961" style="fill:none; fill-rule:evenodd;"
      /><path d="M-3.8042 -1.2361 L-0.9405 -1.2361 L0 -4 L0.9405 -1.2361 L3.8042 -1.2361 L1.5217 0.4944 L2.3512 3.2361 L0 1.6 L-2.3512 3.2361 L-1.5217 0.4944 Z" style="fill:none; stroke:rgb(217,83,25); stroke-linejoin:miter;" transform="translate(305.0359,31.5046)"
    /></g
    ><g style="stroke-linecap:butt; text-rendering:geometricPrecision; image-rendering:optimizeQuality; color-rendering:optimizeQuality; stroke-linejoin:bevel; stroke-dasharray:2,2; color-interpolation:linearRGB; stroke-width:2; stroke-miterlimit:1;"
    ><line y2="196.5185" style="fill:none;" x1="72.9483" x2="507.0517" y1="196.5185"
      /><line y2="30.961" style="fill:none;" x1="290.5023" x2="290.5023" y1="358.039"
    /></g
  ></g
></svg
>
